G04 #@! TF.FileFunction,Copper,L2,Bot,Signal*
%FSLAX46Y46*%
G04 Gerber Fmt 4.6, Leading zero omitted, Abs format (unit mm)*
G04 Created by KiCad (PCBNEW 4.0.4+e1-6308~48~ubuntu15.10.1-stable) date Tue Oct 31 07:31:49 2017*
%MOMM*%
%LPD*%
G01*
G04 APERTURE LIST*
%ADD10C,0.100000*%
%ADD11R,1.600000X1.600000*%
%ADD12O,1.600000X1.600000*%
%ADD13R,1.700000X1.700000*%
%ADD14O,1.700000X1.700000*%
%ADD15O,1.998980X1.998980*%
%ADD16R,1.998980X1.998980*%
%ADD17C,1.524000*%
%ADD18R,2.800000X2.800000*%
%ADD19O,2.800000X2.800000*%
%ADD20C,4.064000*%
%ADD21C,0.250000*%
%ADD22C,0.500000*%
%ADD23C,1.000000*%
%ADD24C,2.000000*%
%ADD25C,0.254000*%
G04 APERTURE END LIST*
D10*
D11*
X20358100Y26606500D03*
D12*
X33058100Y8826500D03*
X20358100Y24066500D03*
X33058100Y11366500D03*
X20358100Y21526500D03*
X33058100Y13906500D03*
X20358100Y18986500D03*
X33058100Y16446500D03*
X20358100Y16446500D03*
X33058100Y18986500D03*
X20358100Y13906500D03*
X33058100Y21526500D03*
X20358100Y11366500D03*
X33058100Y24066500D03*
X20358100Y8826500D03*
X33058100Y26606500D03*
D11*
X43332400Y26466800D03*
D12*
X56032400Y8686800D03*
X43332400Y23926800D03*
X56032400Y11226800D03*
X43332400Y21386800D03*
X56032400Y13766800D03*
X43332400Y18846800D03*
X56032400Y16306800D03*
X43332400Y16306800D03*
X56032400Y18846800D03*
X43332400Y13766800D03*
X56032400Y21386800D03*
X43332400Y11226800D03*
X56032400Y23926800D03*
X43332400Y8686800D03*
X56032400Y26466800D03*
D13*
X12700000Y22860000D03*
D14*
X12700000Y25400000D03*
X12700000Y27940000D03*
X12700000Y30480000D03*
X12700000Y33020000D03*
D15*
X40640000Y3810000D03*
D16*
X38100000Y3810000D03*
D13*
X33020000Y59690000D03*
D14*
X35560000Y59690000D03*
X38100000Y59690000D03*
X40640000Y59690000D03*
X43180000Y59690000D03*
D13*
X53340000Y33655000D03*
D14*
X50800000Y33655000D03*
X48260000Y33655000D03*
X45720000Y33655000D03*
X43180000Y33655000D03*
X40640000Y33655000D03*
X38100000Y33655000D03*
X35560000Y33655000D03*
X33020000Y33655000D03*
X30480000Y33655000D03*
D13*
X6350000Y33020000D03*
D14*
X8890000Y33020000D03*
D13*
X46990000Y58420000D03*
D14*
X46990000Y55880000D03*
D13*
X20320000Y55880000D03*
D14*
X22860000Y55880000D03*
X25400000Y55880000D03*
X27940000Y55880000D03*
X30480000Y55880000D03*
X33020000Y55880000D03*
X35560000Y55880000D03*
X38100000Y55880000D03*
X40640000Y55880000D03*
X43180000Y55880000D03*
D13*
X49682400Y20751800D03*
D14*
X47142400Y20751800D03*
X49682400Y23291800D03*
X47142400Y23291800D03*
X49682400Y25831800D03*
X47142400Y25831800D03*
D13*
X26073100Y20891500D03*
D14*
X23533100Y20891500D03*
X26073100Y23431500D03*
X23533100Y23431500D03*
X26073100Y25971500D03*
X23533100Y25971500D03*
D13*
X25400000Y33655000D03*
D14*
X22860000Y33655000D03*
X20320000Y33655000D03*
X17780000Y33655000D03*
D13*
X7620000Y55880000D03*
D14*
X10160000Y55880000D03*
X12700000Y55880000D03*
X15240000Y55880000D03*
D13*
X16548100Y21526500D03*
D14*
X16548100Y18986500D03*
X16548100Y16446500D03*
X16548100Y13906500D03*
D13*
X39522400Y21386800D03*
D14*
X39522400Y18846800D03*
X39522400Y16306800D03*
X39522400Y13766800D03*
D17*
X53340000Y52070000D03*
X50800000Y52070000D03*
X48260000Y52070000D03*
X45720000Y52070000D03*
X43180000Y52070000D03*
X40640000Y52070000D03*
X38100000Y52070000D03*
X35560000Y52070000D03*
X33020000Y52070000D03*
X30480000Y52070000D03*
X27940000Y52070000D03*
X25400000Y52070000D03*
X22860000Y52070000D03*
X20320000Y52070000D03*
X17780000Y52070000D03*
X15240000Y52070000D03*
X12700000Y52070000D03*
X10160000Y52070000D03*
X7620000Y52070000D03*
X5080000Y52070000D03*
X5080000Y36830000D03*
X7620000Y36830000D03*
X10160000Y36830000D03*
X12700000Y36830000D03*
X15240000Y36830000D03*
X17780000Y36830000D03*
X20320000Y36830000D03*
X22860000Y36830000D03*
X25400000Y36830000D03*
X27940000Y36830000D03*
X30480000Y36830000D03*
X33020000Y36830000D03*
X35560000Y36830000D03*
X38100000Y36830000D03*
X40640000Y36830000D03*
X43180000Y36830000D03*
X45720000Y36830000D03*
X48260000Y36830000D03*
X50800000Y36830000D03*
X53340000Y36830000D03*
D18*
X9525000Y8890000D03*
D19*
X9525000Y19050000D03*
D20*
X55245000Y60325000D03*
X3175000Y60325000D03*
X3175000Y3175000D03*
X55245000Y3175000D03*
D21*
X17780000Y36830000D02*
X17780000Y36322000D01*
X17780000Y36322000D02*
X19050000Y35052000D01*
X21971000Y20193000D02*
X33058100Y9105900D01*
X21971000Y27813000D02*
X21971000Y20193000D01*
X19050000Y30734000D02*
X21971000Y27813000D01*
X19050000Y35052000D02*
X19050000Y30734000D01*
X33058100Y9105900D02*
X33058100Y8826500D01*
X17780000Y36830000D02*
X17780000Y36195000D01*
X23533100Y25971500D02*
X23558500Y25971500D01*
X23558500Y25971500D02*
X24765000Y27178000D01*
X39420800Y23926800D02*
X43332400Y23926800D01*
X38227000Y22733000D02*
X39420800Y23926800D01*
X32385000Y22733000D02*
X38227000Y22733000D01*
X29718000Y25400000D02*
X32385000Y22733000D01*
X28448000Y25400000D02*
X29718000Y25400000D01*
X28067000Y25781000D02*
X28448000Y25400000D01*
X28067000Y25908000D02*
X28067000Y25781000D01*
X26797000Y27178000D02*
X28067000Y25908000D01*
X24765000Y27178000D02*
X26797000Y27178000D01*
X43129200Y23926800D02*
X43332400Y23926800D01*
X33058100Y11366500D02*
X32448500Y11366500D01*
X32448500Y11366500D02*
X26073100Y17741900D01*
X26073100Y17741900D02*
X26073100Y20891500D01*
X32321500Y11366500D02*
X33058100Y11366500D01*
X33058100Y13906500D02*
X33058100Y14566900D01*
X33058100Y14566900D02*
X31242000Y16383000D01*
X31242000Y16383000D02*
X31242000Y23114000D01*
X31242000Y23114000D02*
X29591000Y24765000D01*
X29591000Y24765000D02*
X27406600Y24765000D01*
X27406600Y24765000D02*
X26073100Y23431500D01*
X33058100Y16446500D02*
X33058100Y15836900D01*
X33058100Y15836900D02*
X34417000Y14478000D01*
X24765000Y24663400D02*
X26073100Y25971500D01*
X24765000Y22733000D02*
X24765000Y24663400D01*
X25273000Y22225000D02*
X24765000Y22733000D01*
X27051000Y22225000D02*
X25273000Y22225000D01*
X27940000Y21336000D02*
X27051000Y22225000D01*
X27940000Y17018000D02*
X27940000Y21336000D01*
X32385000Y12573000D02*
X27940000Y17018000D01*
X33655000Y12573000D02*
X32385000Y12573000D01*
X34417000Y13335000D02*
X33655000Y12573000D01*
X34417000Y14478000D02*
X34417000Y13335000D01*
X26073100Y25971500D02*
X26073100Y25869900D01*
X33058100Y24066500D02*
X33058100Y24599900D01*
X33058100Y24599900D02*
X31623000Y26035000D01*
X31623000Y26035000D02*
X31623000Y30480000D01*
X31623000Y30480000D02*
X29083000Y33020000D01*
X29083000Y33020000D02*
X29083000Y37465000D01*
X29083000Y37465000D02*
X27686000Y38862000D01*
X27686000Y38862000D02*
X17272000Y38862000D01*
X17272000Y38862000D02*
X15240000Y36830000D01*
X33058100Y26606500D02*
X33058100Y31711900D01*
X15494000Y39624000D02*
X12700000Y36830000D01*
X30480000Y39624000D02*
X15494000Y39624000D01*
X31750000Y38354000D02*
X30480000Y39624000D01*
X31750000Y33020000D02*
X31750000Y38354000D01*
X33058100Y31711900D02*
X31750000Y33020000D01*
X56032400Y13766800D02*
X54559200Y13766800D01*
X52832000Y20142200D02*
X49682400Y23291800D01*
X52832000Y15494000D02*
X52832000Y20142200D01*
X54559200Y13766800D02*
X52832000Y15494000D01*
X56032400Y16306800D02*
X55067200Y16306800D01*
X51308000Y24206200D02*
X49682400Y25831800D01*
X51308000Y22606000D02*
X51308000Y24206200D01*
X53340000Y20574000D02*
X51308000Y22606000D01*
X53340000Y18034000D02*
X53340000Y20574000D01*
X55067200Y16306800D02*
X53340000Y18034000D01*
D22*
X56032400Y23926800D02*
X56032400Y24536400D01*
X56032400Y24536400D02*
X57531000Y26035000D01*
X57531000Y26035000D02*
X57531000Y36195000D01*
X57531000Y36195000D02*
X54229000Y39497000D01*
X54229000Y39497000D02*
X38100000Y39497000D01*
X38100000Y39497000D02*
X36449000Y41148000D01*
X36449000Y41148000D02*
X36449000Y45593000D01*
X36449000Y45593000D02*
X34290000Y47752000D01*
X34290000Y47752000D02*
X34290000Y53086000D01*
X34290000Y53086000D02*
X33147000Y54229000D01*
X33147000Y54229000D02*
X12700000Y54229000D01*
X12700000Y54229000D02*
X11430000Y52959000D01*
X11430000Y52959000D02*
X11430000Y51435000D01*
X11430000Y51435000D02*
X12319000Y50546000D01*
X12319000Y50546000D02*
X13716000Y50546000D01*
X13716000Y50546000D02*
X15240000Y52070000D01*
X56032400Y26466800D02*
X56032400Y36169600D01*
X14097000Y53467000D02*
X12700000Y52070000D01*
X31115000Y53467000D02*
X14097000Y53467000D01*
X31750000Y52832000D02*
X31115000Y53467000D01*
X31750000Y48641000D02*
X31750000Y52832000D01*
X35179000Y45212000D02*
X31750000Y48641000D01*
X35179000Y40894000D02*
X35179000Y45212000D01*
X37592000Y38481000D02*
X35179000Y40894000D01*
X53721000Y38481000D02*
X37592000Y38481000D01*
X56032400Y36169600D02*
X53721000Y38481000D01*
D23*
X53340000Y52070000D02*
X53340000Y52705000D01*
X53340000Y52705000D02*
X48895000Y57150000D01*
X48895000Y57150000D02*
X48895000Y59690000D01*
X48895000Y59690000D02*
X46990000Y61595000D01*
X46990000Y61595000D02*
X42545000Y61595000D01*
X42545000Y61595000D02*
X40640000Y59690000D01*
D22*
X40640000Y59690000D02*
X38481000Y61849000D01*
X11049000Y32131000D02*
X12700000Y30480000D01*
X11049000Y33020000D02*
X11049000Y32131000D01*
X8890000Y35179000D02*
X11049000Y33020000D01*
X8890000Y37719000D02*
X8890000Y35179000D01*
X6350000Y40259000D02*
X8890000Y37719000D01*
X6350000Y53594000D02*
X6350000Y40259000D01*
X5715000Y54229000D02*
X6350000Y53594000D01*
X5715000Y58166000D02*
X5715000Y54229000D01*
X9398000Y61849000D02*
X5715000Y58166000D01*
X38481000Y61849000D02*
X9398000Y61849000D01*
D21*
X35560000Y33655000D02*
X35560000Y34290000D01*
X35560000Y34290000D02*
X36830000Y35560000D01*
X36830000Y35560000D02*
X36830000Y37592000D01*
X36830000Y37592000D02*
X34163000Y40259000D01*
X34163000Y40259000D02*
X34163000Y44831000D01*
X34163000Y44831000D02*
X30480000Y48514000D01*
X30480000Y48514000D02*
X30480000Y52070000D01*
X45720000Y52070000D02*
X45720000Y53238400D01*
X46990000Y54508400D02*
X46990000Y55880000D01*
X45720000Y53238400D02*
X46990000Y54508400D01*
X35560000Y55880000D02*
X35560000Y52070000D01*
D23*
X12700000Y22860000D02*
X12319000Y22860000D01*
X12319000Y22860000D02*
X6350000Y28829000D01*
X6350000Y28829000D02*
X6350000Y33020000D01*
X20358100Y26606500D02*
X18351500Y26606500D01*
X14605000Y22860000D02*
X12700000Y22860000D01*
X18351500Y26606500D02*
X14605000Y22860000D01*
X20320000Y59690000D02*
X20320000Y55880000D01*
D24*
X7620000Y55880000D02*
X7620000Y57531000D01*
X9779000Y59690000D02*
X20320000Y59690000D01*
X20320000Y59690000D02*
X33020000Y59690000D01*
X7620000Y57531000D02*
X9779000Y59690000D01*
D21*
X43332400Y26466800D02*
X44754800Y26466800D01*
X51689000Y32004000D02*
X53340000Y33655000D01*
X50292000Y32004000D02*
X51689000Y32004000D01*
X44754800Y26466800D02*
X50292000Y32004000D01*
D24*
X40640000Y3810000D02*
X40640000Y5080000D01*
X25374600Y3810000D02*
X20358100Y8826500D01*
X33655000Y3810000D02*
X25374600Y3810000D01*
X36830000Y6985000D02*
X33655000Y3810000D01*
X38735000Y6985000D02*
X36830000Y6985000D01*
X40640000Y5080000D02*
X38735000Y6985000D01*
D23*
X40640000Y3810000D02*
X40640000Y3302000D01*
X40640000Y3810000D02*
X40640000Y4318000D01*
D21*
X38100000Y36830000D02*
X38100000Y35560000D01*
X10160000Y54610000D02*
X10160000Y55880000D01*
X8763000Y53213000D02*
X10160000Y54610000D01*
X8763000Y51181000D02*
X8763000Y53213000D01*
X10541000Y49403000D02*
X8763000Y51181000D01*
X22733000Y49403000D02*
X10541000Y49403000D01*
X34290000Y37846000D02*
X22733000Y49403000D01*
X34290000Y33020000D02*
X34290000Y37846000D01*
X35052000Y32258000D02*
X34290000Y33020000D01*
X36068000Y32258000D02*
X35052000Y32258000D01*
X36830000Y33020000D02*
X36068000Y32258000D01*
X36830000Y34290000D02*
X36830000Y33020000D01*
X38100000Y35560000D02*
X36830000Y34290000D01*
D25*
G36*
X912709Y58816239D02*
X1662293Y58065345D01*
X2642173Y57658464D01*
X3703172Y57657538D01*
X4414462Y57951437D01*
X3719096Y57238687D01*
X3691753Y57196333D01*
X3683000Y57150000D01*
X3683000Y52070647D01*
X3682758Y51793339D01*
X3683000Y51792753D01*
X3683000Y36830647D01*
X3682758Y36553339D01*
X3683000Y36552753D01*
X3683000Y34290000D01*
X3693006Y34240590D01*
X3721447Y34198965D01*
X3763841Y34171685D01*
X3810000Y34163000D01*
X4934046Y34163000D01*
X4865000Y33996309D01*
X4865000Y33305750D01*
X5023750Y33147000D01*
X6223000Y33147000D01*
X6223000Y33167000D01*
X6477000Y33167000D01*
X6477000Y33147000D01*
X6497000Y33147000D01*
X6497000Y32893000D01*
X6477000Y32893000D01*
X6477000Y31693750D01*
X6635750Y31535000D01*
X7326310Y31535000D01*
X7493000Y31604045D01*
X7493000Y31115000D01*
X7508507Y31054186D01*
X11315914Y24073940D01*
X11311673Y24069699D01*
X11215000Y23836310D01*
X11215000Y23145750D01*
X11373750Y22987000D01*
X12573000Y22987000D01*
X12573000Y23007000D01*
X12827000Y23007000D01*
X12827000Y22987000D01*
X12847000Y22987000D01*
X12847000Y22733000D01*
X12827000Y22733000D01*
X12827000Y21533750D01*
X12985750Y21375000D01*
X13676309Y21375000D01*
X13843000Y21444046D01*
X13843000Y20447000D01*
X11482606Y20447000D01*
X10884803Y21044803D01*
X10842789Y21072666D01*
X10795000Y21082000D01*
X9740512Y21082000D01*
X9525000Y21124868D01*
X9309488Y21082000D01*
X8255000Y21082000D01*
X8205590Y21071994D01*
X8149330Y21025447D01*
X6879330Y19120447D01*
X6858000Y19050000D01*
X6858000Y17780000D01*
X6868006Y17730590D01*
X6895197Y17690197D01*
X8165197Y16420197D01*
X8207211Y16392334D01*
X8255000Y16383000D01*
X10795000Y16383000D01*
X10844410Y16393006D01*
X10884803Y16420197D01*
X11482606Y17018000D01*
X14478000Y17018000D01*
X14478000Y10922000D01*
X11001245Y10922000D01*
X10925000Y10937440D01*
X8125000Y10937440D01*
X8042944Y10922000D01*
X7620000Y10922000D01*
X7570590Y10911994D01*
X7528965Y10883553D01*
X7501685Y10841159D01*
X7493000Y10795000D01*
X7493000Y10366245D01*
X7477560Y10290000D01*
X7477560Y7490000D01*
X7493000Y7407944D01*
X7493000Y6350000D01*
X7503006Y6300590D01*
X7531447Y6258965D01*
X7573841Y6231685D01*
X7620000Y6223000D01*
X19637282Y6223000D01*
X24681370Y1809423D01*
X24725144Y1784416D01*
X24765000Y1778000D01*
X35560000Y1778000D01*
X35609410Y1788006D01*
X35651035Y1816447D01*
X35678315Y1858841D01*
X35687000Y1905000D01*
X35687000Y2540000D01*
X36519994Y2540000D01*
X36636420Y2359069D01*
X36848620Y2214079D01*
X37100510Y2163070D01*
X37317322Y2163070D01*
X37095991Y1942125D01*
X36915206Y1506745D01*
X36914794Y1035323D01*
X37049215Y710000D01*
X4193168Y710000D01*
X4683761Y912709D01*
X5434655Y1662293D01*
X5841536Y2642173D01*
X5842462Y3703172D01*
X5437291Y4683761D01*
X4687707Y5434655D01*
X3707827Y5841536D01*
X2646828Y5842462D01*
X1666239Y5437291D01*
X915345Y4687707D01*
X710000Y4193180D01*
X710000Y22574250D01*
X11215000Y22574250D01*
X11215000Y21883690D01*
X11311673Y21650301D01*
X11490302Y21471673D01*
X11723691Y21375000D01*
X12414250Y21375000D01*
X12573000Y21533750D01*
X12573000Y22733000D01*
X11373750Y22733000D01*
X11215000Y22574250D01*
X710000Y22574250D01*
X710000Y32734250D01*
X4865000Y32734250D01*
X4865000Y32043691D01*
X4961673Y31810302D01*
X5140301Y31631673D01*
X5373690Y31535000D01*
X6064250Y31535000D01*
X6223000Y31693750D01*
X6223000Y32893000D01*
X5023750Y32893000D01*
X4865000Y32734250D01*
X710000Y32734250D01*
X710000Y59306832D01*
X912709Y58816239D01*
X912709Y58816239D01*
G37*
X912709Y58816239D02*
X1662293Y58065345D01*
X2642173Y57658464D01*
X3703172Y57657538D01*
X4414462Y57951437D01*
X3719096Y57238687D01*
X3691753Y57196333D01*
X3683000Y57150000D01*
X3683000Y52070647D01*
X3682758Y51793339D01*
X3683000Y51792753D01*
X3683000Y36830647D01*
X3682758Y36553339D01*
X3683000Y36552753D01*
X3683000Y34290000D01*
X3693006Y34240590D01*
X3721447Y34198965D01*
X3763841Y34171685D01*
X3810000Y34163000D01*
X4934046Y34163000D01*
X4865000Y33996309D01*
X4865000Y33305750D01*
X5023750Y33147000D01*
X6223000Y33147000D01*
X6223000Y33167000D01*
X6477000Y33167000D01*
X6477000Y33147000D01*
X6497000Y33147000D01*
X6497000Y32893000D01*
X6477000Y32893000D01*
X6477000Y31693750D01*
X6635750Y31535000D01*
X7326310Y31535000D01*
X7493000Y31604045D01*
X7493000Y31115000D01*
X7508507Y31054186D01*
X11315914Y24073940D01*
X11311673Y24069699D01*
X11215000Y23836310D01*
X11215000Y23145750D01*
X11373750Y22987000D01*
X12573000Y22987000D01*
X12573000Y23007000D01*
X12827000Y23007000D01*
X12827000Y22987000D01*
X12847000Y22987000D01*
X12847000Y22733000D01*
X12827000Y22733000D01*
X12827000Y21533750D01*
X12985750Y21375000D01*
X13676309Y21375000D01*
X13843000Y21444046D01*
X13843000Y20447000D01*
X11482606Y20447000D01*
X10884803Y21044803D01*
X10842789Y21072666D01*
X10795000Y21082000D01*
X9740512Y21082000D01*
X9525000Y21124868D01*
X9309488Y21082000D01*
X8255000Y21082000D01*
X8205590Y21071994D01*
X8149330Y21025447D01*
X6879330Y19120447D01*
X6858000Y19050000D01*
X6858000Y17780000D01*
X6868006Y17730590D01*
X6895197Y17690197D01*
X8165197Y16420197D01*
X8207211Y16392334D01*
X8255000Y16383000D01*
X10795000Y16383000D01*
X10844410Y16393006D01*
X10884803Y16420197D01*
X11482606Y17018000D01*
X14478000Y17018000D01*
X14478000Y10922000D01*
X11001245Y10922000D01*
X10925000Y10937440D01*
X8125000Y10937440D01*
X8042944Y10922000D01*
X7620000Y10922000D01*
X7570590Y10911994D01*
X7528965Y10883553D01*
X7501685Y10841159D01*
X7493000Y10795000D01*
X7493000Y10366245D01*
X7477560Y10290000D01*
X7477560Y7490000D01*
X7493000Y7407944D01*
X7493000Y6350000D01*
X7503006Y6300590D01*
X7531447Y6258965D01*
X7573841Y6231685D01*
X7620000Y6223000D01*
X19637282Y6223000D01*
X24681370Y1809423D01*
X24725144Y1784416D01*
X24765000Y1778000D01*
X35560000Y1778000D01*
X35609410Y1788006D01*
X35651035Y1816447D01*
X35678315Y1858841D01*
X35687000Y1905000D01*
X35687000Y2540000D01*
X36519994Y2540000D01*
X36636420Y2359069D01*
X36848620Y2214079D01*
X37100510Y2163070D01*
X37317322Y2163070D01*
X37095991Y1942125D01*
X36915206Y1506745D01*
X36914794Y1035323D01*
X37049215Y710000D01*
X4193168Y710000D01*
X4683761Y912709D01*
X5434655Y1662293D01*
X5841536Y2642173D01*
X5842462Y3703172D01*
X5437291Y4683761D01*
X4687707Y5434655D01*
X3707827Y5841536D01*
X2646828Y5842462D01*
X1666239Y5437291D01*
X915345Y4687707D01*
X710000Y4193180D01*
X710000Y22574250D01*
X11215000Y22574250D01*
X11215000Y21883690D01*
X11311673Y21650301D01*
X11490302Y21471673D01*
X11723691Y21375000D01*
X12414250Y21375000D01*
X12573000Y21533750D01*
X12573000Y22733000D01*
X11373750Y22733000D01*
X11215000Y22574250D01*
X710000Y22574250D01*
X710000Y32734250D01*
X4865000Y32734250D01*
X4865000Y32043691D01*
X4961673Y31810302D01*
X5140301Y31631673D01*
X5373690Y31535000D01*
X6064250Y31535000D01*
X6223000Y31693750D01*
X6223000Y32893000D01*
X5023750Y32893000D01*
X4865000Y32734250D01*
X710000Y32734250D01*
X710000Y59306832D01*
X912709Y58816239D01*
M02*
