EESchema Schematic File Version 2
LIBS:controller-rescue
LIBS:power
LIBS:device
LIBS:transistors
LIBS:conn
LIBS:linear
LIBS:regul
LIBS:74xx
LIBS:cmos4000
LIBS:adc-dac
LIBS:memory
LIBS:xilinx
LIBS:microcontrollers
LIBS:dsp
LIBS:microchip
LIBS:analog_switches
LIBS:motorola
LIBS:texas
LIBS:intel
LIBS:audio
LIBS:interface
LIBS:digital-audio
LIBS:philips
LIBS:display
LIBS:cypress
LIBS:siliconi
LIBS:opto
LIBS:atmel
LIBS:contrib
LIBS:valves
LIBS:Maple Mini
LIBS:controller-cache
EELAYER 25 0
EELAYER END
$Descr A4 11693 8268
encoding utf-8
Sheet 1 1
Title ""
Date ""
Rev ""
Comp ""
Comment1 ""
Comment2 ""
Comment3 ""
Comment4 ""
$EndDescr
$Comp
L Screw_Terminal_1x02 J8
U 1 1 59D5AD9A
P 4650 6050
F 0 "J8" H 4650 6300 50  0000 C TNN
F 1 "Screw_Terminal_1x02" H 4500 6050 50  0000 C TNN
F 2 "Connectors_Terminal_Blocks:TerminalBlock_Pheonix_PT-3.5mm_2pol" H 4650 5825 50  0001 C CNN
F 3 "" H 4625 6050 50  0001 C CNN
	1    4650 6050
	-1   0    0    1   
$EndComp
$Comp
L Pololu_Breakout_A4988 A2
U 1 1 59D5B60B
P 7200 1750
F 0 "A2" H 7100 2500 50  0000 R CNN
F 1 "Pololu_Breakout_A4988" H 7100 2400 50  0000 R CNN
F 2 "Modules:Pololu_Breakout-16_15.2x20.3mm" H 7475 1000 50  0001 L CNN
F 3 "" H 7300 1450 50  0001 C CNN
	1    7200 1750
	1    0    0    -1  
$EndComp
$Comp
L CONN_01X04_MALE J12
U 1 1 59D5B611
P 8250 1800
F 0 "J12" H 8250 2175 50  0000 C CNN
F 1 "CONN_01X04_MALE" H 8250 1400 50  0000 C CNN
F 2 "Pin_Headers:Pin_Header_Straight_1x04_Pitch2.54mm" H 8250 2100 50  0001 C CNN
F 3 "" H 8250 2100 50  0001 C CNN
	1    8250 1800
	-1   0    0    1   
$EndComp
Wire Wire Line
	7700 1650 7700 1500
Wire Wire Line
	7700 1500 7950 1500
Wire Wire Line
	7700 1950 7700 2100
Wire Wire Line
	7700 2100 7950 2100
Wire Wire Line
	7700 1850 7900 1850
Wire Wire Line
	7900 1850 7900 1900
Wire Wire Line
	7900 1900 7950 1900
Wire Wire Line
	7700 1750 7900 1750
Wire Wire Line
	7900 1750 7900 1700
Wire Wire Line
	7900 1700 7950 1700
Wire Wire Line
	6800 1350 6800 1450
$Comp
L R R1
U 1 1 59D5B628
P 6600 2350
F 0 "R1" V 6680 2350 50  0000 C CNN
F 1 "R100K" V 6600 2350 50  0000 C CNN
F 2 "Resistors_SMD:R_0805_HandSoldering" V 6530 2350 50  0001 C CNN
F 3 "" H 6600 2350 50  0001 C CNN
	1    6600 2350
	0    -1   -1   0   
$EndComp
$Comp
L Earth #PWR01
U 1 1 59D5B62E
P 6750 2350
F 0 "#PWR01" H 6750 2100 50  0001 C CNN
F 1 "Earth" H 6750 2200 50  0001 C CNN
F 2 "" H 6750 2350 50  0001 C CNN
F 3 "" H 6750 2350 50  0001 C CNN
	1    6750 2350
	1    0    0    -1  
$EndComp
$Comp
L Earth #PWR02
U 1 1 59D5B826
P 7200 2550
F 0 "#PWR02" H 7200 2300 50  0001 C CNN
F 1 "Earth" H 7200 2400 50  0001 C CNN
F 2 "" H 7200 2550 50  0001 C CNN
F 3 "" H 7200 2550 50  0001 C CNN
	1    7200 2550
	1    0    0    -1  
$EndComp
$Comp
L VCC #PWR03
U 1 1 59D5C4F1
P 7200 1050
F 0 "#PWR03" H 7200 900 50  0001 C CNN
F 1 "VCC" H 7200 1200 50  0000 C CNN
F 2 "" H 7200 1050 50  0001 C CNN
F 3 "" H 7200 1050 50  0001 C CNN
	1    7200 1050
	1    0    0    -1  
$EndComp
$Comp
L CP1 C2
U 1 1 59D5C831
P 7950 1000
F 0 "C2" H 7975 1100 50  0000 L CNN
F 1 "CP1" H 7975 900 50  0000 L CNN
F 2 "smt_cap_alu_eletrolytic_6.6x5:CP_Elec_6.3x5.7" H 7950 1000 50  0001 C CNN
F 3 "" H 7950 1000 50  0001 C CNN
	1    7950 1000
	1    0    0    -1  
$EndComp
Connection ~ 7950 850 
$Comp
L CONN_01X10 J7
U 1 1 59D5CBE5
P 3450 1100
F 0 "J7" H 3450 1650 50  0000 C CNN
F 1 "CONN_01X10" V 3550 1100 50  0000 C CNN
F 2 "Pin_Headers:Pin_Header_Straight_1x10_Pitch2.54mm" H 3450 1100 50  0001 C CNN
F 3 "" H 3450 1100 50  0001 C CNN
	1    3450 1100
	0    -1   -1   0   
$EndComp
$Comp
L CONN_01X05 J3
U 1 1 59D5CCEB
P 1750 3300
F 0 "J3" H 1750 3600 50  0000 C CNN
F 1 "CONN_01X05" V 1850 3300 50  0000 C CNN
F 2 "Pin_Headers:Pin_Header_Straight_1x05_Pitch2.54mm" H 1750 3300 50  0001 C CNN
F 3 "" H 1750 3300 50  0001 C CNN
	1    1750 3300
	-1   0    0    1   
$EndComp
$Comp
L CONN_01X02 J5
U 1 1 59D5CE97
P 1750 4650
F 0 "J5" H 1750 4800 50  0000 C CNN
F 1 "CONN_01X02" V 1850 4650 50  0000 C CNN
F 2 "Pin_Headers:Pin_Header_Straight_1x02_Pitch2.54mm" H 1750 4650 50  0001 C CNN
F 3 "" H 1750 4650 50  0001 C CNN
	1    1750 4650
	-1   0    0    1   
$EndComp
$Comp
L CONN_01X02 J6
U 1 1 59D5CF1C
P 1750 5250
F 0 "J6" H 1750 5400 50  0000 C CNN
F 1 "CONN_01X02" V 1850 5250 50  0000 C CNN
F 2 "Pin_Headers:Pin_Header_Straight_1x02_Pitch2.54mm" H 1750 5250 50  0001 C CNN
F 3 "" H 1750 5250 50  0001 C CNN
	1    1750 5250
	-1   0    0    1   
$EndComp
Text GLabel 5100 4300 2    60   Input ~ 0
STEPIN1
Text GLabel 5100 4200 2    60   Input ~ 0
DIRIN1
Text GLabel 5100 4100 2    60   Input ~ 0
ENABLEIN1
$Comp
L CONN_01X04_MALE J1
U 1 1 59D5D68E
P 1650 1050
F 0 "J1" H 1650 1425 50  0000 C CNN
F 1 "CONN_01X04_MALE" H 1650 650 50  0000 C CNN
F 2 "Pin_Headers:Pin_Header_Straight_1x04_Pitch2.54mm" H 1650 1350 50  0001 C CNN
F 3 "" H 1650 1350 50  0001 C CNN
	1    1650 1050
	1    0    0    -1  
$EndComp
Text GLabel 1950 750  2    60   Input ~ 0
STEPIN1
Text GLabel 1950 950  2    60   Input ~ 0
DIRIN1
Text GLabel 1950 1150 2    60   Input ~ 0
ENABLEIN1
Text GLabel 3300 1900 3    60   Input ~ 0
NCS1
Text GLabel 3500 4100 0    60   Input ~ 0
NCS1
Text GLabel 3400 1300 3    60   Input ~ 0
MISO1
Text GLabel 3500 1300 3    60   Input ~ 0
MOSI1
Text GLabel 3500 3700 0    60   Input ~ 0
MOSI1
Text GLabel 3500 3800 0    60   Input ~ 0
MISO1
Text GLabel 3600 1300 3    60   Input ~ 0
SCLK1
Text GLabel 3500 3900 0    60   Input ~ 0
SCLK1
Text GLabel 3700 1300 3    60   Input ~ 0
RST1
Text GLabel 3500 3600 0    60   Input ~ 0
RST1
Wire Wire Line
	1950 1350 2200 1350
Text GLabel 1950 4600 2    60   Input ~ 0
ESTOP
$Comp
L Earth #PWR04
U 1 1 59D5EA6C
P 1950 4700
F 0 "#PWR04" H 1950 4450 50  0001 C CNN
F 1 "Earth" H 1950 4550 50  0001 C CNN
F 2 "" H 1950 4700 50  0001 C CNN
F 3 "" H 1950 4700 50  0001 C CNN
	1    1950 4700
	1    0    0    -1  
$EndComp
$Comp
L Earth #PWR05
U 1 1 59D5EABC
P 1950 5300
F 0 "#PWR05" H 1950 5050 50  0001 C CNN
F 1 "Earth" H 1950 5150 50  0001 C CNN
F 2 "" H 1950 5300 50  0001 C CNN
F 3 "" H 1950 5300 50  0001 C CNN
	1    1950 5300
	1    0    0    -1  
$EndComp
Text GLabel 1950 5200 2    60   Input ~ 0
PJON
Wire Notes Line
	2800 800  2800 2250
Wire Notes Line
	4000 800  2800 800 
Wire Notes Line
	2550 550  1200 550 
Wire Notes Line
	1200 1500 2550 1500
Wire Notes Line
	1550 5000 2300 5000
Wire Notes Line
	2300 5000 2300 5500
Wire Notes Line
	2300 5500 1550 5500
Wire Notes Line
	1550 5500 1550 5000
Wire Notes Line
	1500 4350 2300 4350
Wire Notes Line
	2300 4350 2300 4900
Wire Notes Line
	2300 4900 1500 4900
Wire Notes Line
	1500 4900 1500 4350
Wire Wire Line
	1950 3500 2100 3500
Text GLabel 4100 3100 1    60   Input ~ 0
VIN_USB
Text GLabel 1950 3200 2    60   Input ~ 0
VIN_USB
Text GLabel 1950 3100 2    60   Input ~ 0
QE1CHB
Text GLabel 1950 3300 2    60   Input ~ 0
QE1CHA
Text GLabel 3500 3400 0    60   Input ~ 0
QE1CHA
Text GLabel 3500 3300 0    60   Input ~ 0
QE1CHB
Text GLabel 6450 1750 0    60   Input ~ 0
STEPOUT1
Text GLabel 6450 1850 0    60   Input ~ 0
DIROUT1
Text GLabel 6450 1650 0    60   Input ~ 0
ENABLEOUT1
Text GLabel 5100 3600 2    60   Input ~ 0
PJON
Wire Notes Line
	2400 3650 1500 3650
Wire Notes Line
	2400 3000 1500 3000
Text GLabel 5100 3500 2    60   Input ~ 0
ESTOP
Text GLabel 5100 4600 2    60   Input ~ 0
ENABLEOUT1
Text GLabel 5100 4700 2    60   Input ~ 0
STEPOUT1
Text GLabel 5100 4800 2    60   Input ~ 0
DIROUT1
Text GLabel 8300 850  2    60   Input ~ 0
VMOT
Text GLabel 4150 5950 0    60   Input ~ 0
VMOT
Wire Wire Line
	7400 1050 7400 850 
Wire Wire Line
	7400 850  8300 850 
Wire Notes Line
	5800 700  5800 3050
Wire Notes Line
	5800 3050 8650 3050
Wire Notes Line
	8650 3050 8650 700 
Wire Notes Line
	8650 700  5800 700 
Text Notes 5850 800  0    60   ~ 0
Pololu Slot 1\n
Text Notes 2850 900  0    60   ~ 0
ADNS-3080 board slot 1
Text Notes 1200 650  0    60   ~ 0
Stepper input 1
Text Notes 950  3350 0    60   ~ 0
Quad enc 1
Text Notes 1050 4650 0    60   ~ 0
Estop pin
Text Notes 950  5250 0    60   ~ 0
PJON comms
Text Notes 7350 7500 0    60   ~ 0
CLOSED LOOP CONTROLLER
Wire Notes Line
	5350 6450 5350 5650
Wire Notes Line
	5350 5650 3600 5650
Text Notes 4150 5750 0    60   ~ 0
VMOT Screw Terminal\n
Text GLabel 5100 4400 2    60   Input ~ 0
LEDRED
Text GLabel 5100 4500 2    60   Input ~ 0
LEDGREEN
Text GLabel 2300 5900 2    60   Input ~ 0
LEDRED
Text GLabel 2300 6200 2    60   Input ~ 0
LEDGREEN
$Comp
L R R3
U 1 1 59D64D7C
P 2150 5900
F 0 "R3" V 2230 5900 50  0000 C CNN
F 1 "R220" V 2150 5900 50  0000 C CNN
F 2 "Resistors_SMD:R_0805_HandSoldering" V 2080 5900 50  0001 C CNN
F 3 "" H 2150 5900 50  0001 C CNN
	1    2150 5900
	0    1    1    0   
$EndComp
Wire Wire Line
	1300 6050 1600 6050
Wire Wire Line
	1300 6050 1300 6150
Text Notes 1500 5750 0    60   ~ 0
LED quality indicator
NoConn ~ 1950 3400
NoConn ~ 3900 1300
NoConn ~ 3800 1300
NoConn ~ 3100 1300
$Comp
L Earth #PWR06
U 1 1 59D6C023
P 1300 6150
F 0 "#PWR06" H 1300 5900 50  0001 C CNN
F 1 "Earth" H 1300 6000 50  0001 C CNN
F 2 "" H 1300 6150 50  0001 C CNN
F 3 "" H 1300 6150 50  0001 C CNN
	1    1300 6150
	1    0    0    -1  
$EndComp
$Comp
L R R4
U 1 1 59D6C10F
P 2150 6200
F 0 "R4" V 2230 6200 50  0000 C CNN
F 1 "R220" V 2150 6200 50  0000 C CNN
F 2 "Resistors_SMD:R_0805_HandSoldering" V 2080 6200 50  0001 C CNN
F 3 "" H 2150 6200 50  0001 C CNN
	1    2150 6200
	0    1    1    0   
$EndComp
Wire Notes Line
	1100 5600 1100 6400
Wire Notes Line
	1100 6400 2850 6400
Wire Notes Line
	2850 6400 2850 5600
Wire Notes Line
	2850 5600 1100 5600
$Comp
L R R6
U 1 1 59D6CB2C
P 6650 1500
F 0 "R6" V 6730 1500 50  0000 C CNN
F 1 "R10k" V 6650 1500 50  0000 C CNN
F 2 "Resistors_SMD:R_0805_HandSoldering" V 6580 1500 50  0001 C CNN
F 3 "" H 6650 1500 50  0001 C CNN
	1    6650 1500
	1    0    0    -1  
$EndComp
$Comp
L VCC #PWR07
U 1 1 59D6CB32
P 6650 1350
F 0 "#PWR07" H 6650 1200 50  0001 C CNN
F 1 "VCC" H 6650 1500 50  0000 C CNN
F 2 "" H 6650 1350 50  0001 C CNN
F 3 "" H 6650 1350 50  0001 C CNN
	1    6650 1350
	1    0    0    -1  
$EndComp
Wire Wire Line
	6450 1650 6800 1650
Connection ~ 6650 1650
$Comp
L Earth #PWR08
U 1 1 59D6D7DC
P 3000 1300
F 0 "#PWR08" H 3000 1050 50  0001 C CNN
F 1 "Earth" H 3000 1150 50  0001 C CNN
F 2 "" H 3000 1300 50  0001 C CNN
F 3 "" H 3000 1300 50  0001 C CNN
	1    3000 1300
	1    0    0    -1  
$EndComp
$Comp
L VCC #PWR09
U 1 1 59D6D7E2
P 3000 1650
F 0 "#PWR09" H 3000 1500 50  0001 C CNN
F 1 "VCC" H 3000 1800 50  0000 C CNN
F 2 "" H 3000 1650 50  0001 C CNN
F 3 "" H 3000 1650 50  0001 C CNN
	1    3000 1650
	-1   0    0    1   
$EndComp
$Comp
L R R7
U 1 1 59D6D7E8
P 3150 1650
F 0 "R7" V 3230 1650 50  0000 C CNN
F 1 "R10k" V 3150 1650 50  0000 C CNN
F 2 "Resistors_SMD:R_0805_HandSoldering" V 3080 1650 50  0001 C CNN
F 3 "" H 3150 1650 50  0001 C CNN
	1    3150 1650
	0    -1   -1   0   
$EndComp
Wire Wire Line
	3300 1300 3300 1900
Connection ~ 3300 1650
Wire Wire Line
	3200 1300 3200 1500
Wire Wire Line
	3200 1500 3000 1500
Wire Wire Line
	3000 1500 3000 1650
Wire Wire Line
	6800 1750 6450 1750
Wire Wire Line
	6450 1850 6800 1850
Wire Notes Line
	2800 2250 4000 2250
Wire Notes Line
	4000 2250 4000 800 
$Comp
L LED-RESCUE-controller D1
U 1 1 59D7E35E
P 1850 5900
F 0 "D1" H 1850 6000 50  0000 C CNN
F 1 "LED" H 1850 5800 50  0000 C CNN
F 2 "LEDs:LED_0805_HandSoldering" H 1850 5900 50  0001 C CNN
F 3 "" H 1850 5900 50  0001 C CNN
	1    1850 5900
	1    0    0    -1  
$EndComp
$Comp
L LED-RESCUE-controller D2
U 1 1 59D7E3CE
P 1850 6200
F 0 "D2" H 1850 6300 50  0000 C CNN
F 1 "LED" H 1850 6100 50  0000 C CNN
F 2 "LEDs:LED_0805_HandSoldering" H 1850 6200 50  0001 C CNN
F 3 "" H 1850 6200 50  0001 C CNN
	1    1850 6200
	1    0    0    -1  
$EndComp
Connection ~ 1600 6050
Wire Wire Line
	1600 5900 1600 6200
Wire Wire Line
	1600 5900 1700 5900
Wire Wire Line
	1600 6200 1700 6200
Wire Notes Line
	3600 6450 5350 6450
Wire Notes Line
	2550 1500 2550 550 
Wire Notes Line
	1200 550  1200 1500
Wire Notes Line
	1500 3000 1500 3650
Wire Notes Line
	2400 3650 2400 3000
$Comp
L Earth #PWR010
U 1 1 59DBDA51
P 2200 1350
F 0 "#PWR010" H 2200 1100 50  0001 C CNN
F 1 "Earth" H 2200 1200 50  0001 C CNN
F 2 "" H 2200 1350 50  0001 C CNN
F 3 "" H 2200 1350 50  0001 C CNN
	1    2200 1350
	1    0    0    -1  
$EndComp
$Comp
L Earth #PWR011
U 1 1 59DBDAA1
P 2100 3500
F 0 "#PWR011" H 2100 3250 50  0001 C CNN
F 1 "Earth" H 2100 3350 50  0001 C CNN
F 2 "" H 2100 3500 50  0001 C CNN
F 3 "" H 2100 3500 50  0001 C CNN
	1    2100 3500
	1    0    0    -1  
$EndComp
$Comp
L DIODE D3
U 1 1 59D939E1
P 4250 6150
F 0 "D3" H 4250 6300 50  0000 C CNN
F 1 "DIODE" H 4250 5975 50  0000 C CNN
F 2 "Diodes_THT:D_DO-201AD_P12.70mm_Horizontal" H 4250 6150 50  0001 C CNN
F 3 "" H 4250 6150 50  0001 C CNN
	1    4250 6150
	-1   0    0    1   
$EndComp
Text GLabel 4050 6150 0    60   Input ~ 0
MOTGND
Wire Notes Line
	3600 5650 3600 6450
Text GLabel 7400 2550 3    60   Input ~ 0
MOTGND
Connection ~ 7400 2550
$Comp
L Maple_Mini A1
U 1 1 59DC1A5C
P 4300 4200
F 0 "A1" H 3650 5200 50  0000 L CNN
F 1 "Maple_Mini" H 4950 5200 50  0000 R CNN
F 2 "maplemini:maple_mini_socket" H 4350 3150 50  0001 L CNN
F 3 "" H 4350 2200 50  0001 L CNN
	1    4300 4200
	1    0    0    -1  
$EndComp
$Comp
L VCC #PWR012
U 1 1 59DC23BE
P 3500 5100
F 0 "#PWR012" H 3500 4950 50  0001 C CNN
F 1 "VCC" H 3500 5250 50  0000 C CNN
F 2 "" H 3500 5100 50  0001 C CNN
F 3 "" H 3500 5100 50  0001 C CNN
	1    3500 5100
	0    -1   -1   0   
$EndComp
$Comp
L VCC #PWR013
U 1 1 59DC240E
P 5100 5100
F 0 "#PWR013" H 5100 4950 50  0001 C CNN
F 1 "VCC" H 5100 5250 50  0000 C CNN
F 2 "" H 5100 5100 50  0001 C CNN
F 3 "" H 5100 5100 50  0001 C CNN
	1    5100 5100
	0    1    1    0   
$EndComp
$Comp
L Earth #PWR014
U 1 1 59DC245E
P 5100 5000
F 0 "#PWR014" H 5100 4750 50  0001 C CNN
F 1 "Earth" H 5100 4850 50  0001 C CNN
F 2 "" H 5100 5000 50  0001 C CNN
F 3 "" H 5100 5000 50  0001 C CNN
	1    5100 5000
	0    -1   -1   0   
$EndComp
$Comp
L Earth #PWR015
U 1 1 59DC24C2
P 3500 5000
F 0 "#PWR015" H 3500 4750 50  0001 C CNN
F 1 "Earth" H 3500 4850 50  0001 C CNN
F 2 "" H 3500 5000 50  0001 C CNN
F 3 "" H 3500 5000 50  0001 C CNN
	1    3500 5000
	0    1    1    0   
$EndComp
NoConn ~ 5100 4900
NoConn ~ 5100 4000
NoConn ~ 5100 3900
NoConn ~ 5100 3800
NoConn ~ 5100 3700
NoConn ~ 5100 3400
NoConn ~ 5100 3300
NoConn ~ 3500 4900
NoConn ~ 3500 4800
NoConn ~ 3500 4700
NoConn ~ 3500 4600
NoConn ~ 3500 4500
NoConn ~ 3500 4400
NoConn ~ 3500 4300
NoConn ~ 3500 4200
NoConn ~ 3500 4000
NoConn ~ 3500 3500
NoConn ~ 4450 3100
$Comp
L VCC #PWR016
U 1 1 59D5CA13
P 6100 2850
F 0 "#PWR016" H 6100 2700 50  0001 C CNN
F 1 "VCC" H 6100 3000 50  0000 C CNN
F 2 "" H 6100 2850 50  0001 C CNN
F 3 "" H 6100 2850 50  0001 C CNN
	1    6100 2850
	-1   0    0    1   
$EndComp
$Comp
L CONN_02X03 J10
U 1 1 59D5B622
P 6350 2600
F 0 "J10" H 6350 2800 50  0000 C CNN
F 1 "CONN_02X03" H 6350 2400 50  0000 C CNN
F 2 "Pin_Headers:Pin_Header_Straight_2x03_Pitch2.54mm" H 6350 1400 50  0001 C CNN
F 3 "" H 6350 1400 50  0001 C CNN
	1    6350 2600
	0    1    1    0   
$EndComp
Wire Wire Line
	6100 2850 6450 2850
Connection ~ 6350 2850
Connection ~ 6250 2850
Wire Wire Line
	6450 2350 6450 2050
Wire Wire Line
	6450 2050 6800 2050
Wire Wire Line
	6800 2250 6250 2250
Wire Wire Line
	6250 2250 6250 2350
Wire Wire Line
	6350 2350 6350 2150
Wire Wire Line
	6350 2150 6800 2150
Text GLabel 7950 1150 2    60   Input ~ 0
MOTGND
Wire Wire Line
	4150 5950 4450 5950
$EndSCHEMATC
