EESchema Schematic File Version 2
LIBS:maple_mini
LIBS:power
LIBS:device
LIBS:transistors
LIBS:conn
LIBS:linear
LIBS:regul
LIBS:74xx
LIBS:cmos4000
LIBS:adc-dac
LIBS:memory
LIBS:xilinx
LIBS:microcontrollers
LIBS:dsp
LIBS:microchip
LIBS:analog_switches
LIBS:motorola
LIBS:texas
LIBS:intel
LIBS:audio
LIBS:interface
LIBS:digital-audio
LIBS:philips
LIBS:display
LIBS:cypress
LIBS:siliconi
LIBS:opto
LIBS:atmel
LIBS:contrib
LIBS:valves
LIBS:screw_terminal_1x02
LIBS:modules
LIBS:dual_controller-cache
EELAYER 25 0
EELAYER END
$Descr A4 11693 8268
encoding utf-8
Sheet 1 1
Title ""
Date ""
Rev ""
Comp ""
Comment1 ""
Comment2 ""
Comment3 ""
Comment4 ""
$EndDescr
$Comp
L R R1
U 1 1 59D5B628
P 7600 2250
F 0 "R1" V 7680 2250 50  0000 C CNN
F 1 "R100K" V 7600 2250 50  0000 C CNN
F 2 "Resistors_SMD:R_0805_HandSoldering" V 7530 2250 50  0001 C CNN
F 3 "" H 7600 2250 50  0001 C CNN
	1    7600 2250
	0    -1   -1   0   
$EndComp
$Comp
L Earth #PWR01
U 1 1 59D5B62E
P 7750 2250
F 0 "#PWR01" H 7750 2000 50  0001 C CNN
F 1 "Earth" H 7750 2100 50  0001 C CNN
F 2 "" H 7750 2250 50  0001 C CNN
F 3 "" H 7750 2250 50  0001 C CNN
	1    7750 2250
	1    0    0    -1  
$EndComp
$Comp
L Earth #PWR02
U 1 1 59D5B826
P 8200 2450
F 0 "#PWR02" H 8200 2200 50  0001 C CNN
F 1 "Earth" H 8200 2300 50  0001 C CNN
F 2 "" H 8200 2450 50  0001 C CNN
F 3 "" H 8200 2450 50  0001 C CNN
	1    8200 2450
	1    0    0    -1  
$EndComp
$Comp
L VCC #PWR03
U 1 1 59D5C4F1
P 8200 950
F 0 "#PWR03" H 8200 800 50  0001 C CNN
F 1 "VCC" H 8200 1100 50  0000 C CNN
F 2 "" H 8200 950 50  0001 C CNN
F 3 "" H 8200 950 50  0001 C CNN
	1    8200 950 
	1    0    0    -1  
$EndComp
$Comp
L CP1 C2
U 1 1 59D5C831
P 8950 900
F 0 "C2" H 8975 1000 50  0000 L CNN
F 1 "CP1" H 8975 800 50  0000 L CNN
F 2 "smt_cap_alu_eletrolytic_6.6x5:CP_Elec_6.3x5.7" H 8950 900 50  0001 C CNN
F 3 "" H 8950 900 50  0001 C CNN
	1    8950 900 
	1    0    0    -1  
$EndComp
$Comp
L CONN_01X10 J7
U 1 1 59D5CBE5
P 4100 900
F 0 "J7" H 4100 1450 50  0000 C CNN
F 1 "CONN_01X10" V 4200 900 50  0000 C CNN
F 2 "Pin_Headers:Pin_Header_Straight_1x10_Pitch2.54mm" H 4100 900 50  0001 C CNN
F 3 "" H 4100 900 50  0001 C CNN
	1    4100 900 
	0    -1   -1   0   
$EndComp
$Comp
L CONN_01X05 J3
U 1 1 59D5CCEB
P 1950 3000
F 0 "J3" H 1950 3300 50  0000 C CNN
F 1 "CONN_01X05" V 2050 3000 50  0000 C CNN
F 2 "Pin_Headers:Pin_Header_Straight_1x05_Pitch2.54mm" H 1950 3000 50  0001 C CNN
F 3 "" H 1950 3000 50  0001 C CNN
	1    1950 3000
	-1   0    0    1   
$EndComp
$Comp
L CONN_01X02 J5
U 1 1 59D5CE97
P 2050 4500
F 0 "J5" H 2050 4650 50  0000 C CNN
F 1 "CONN_01X02" V 2150 4500 50  0000 C CNN
F 2 "Pin_Headers:Pin_Header_Straight_1x02_Pitch2.54mm" H 2050 4500 50  0001 C CNN
F 3 "" H 2050 4500 50  0001 C CNN
	1    2050 4500
	-1   0    0    1   
$EndComp
$Comp
L CONN_01X02 J6
U 1 1 59D5CF1C
P 2050 5100
F 0 "J6" H 2050 5250 50  0000 C CNN
F 1 "CONN_01X02" V 2150 5100 50  0000 C CNN
F 2 "Pin_Headers:Pin_Header_Straight_1x02_Pitch2.54mm" H 2050 5100 50  0001 C CNN
F 3 "" H 2050 5100 50  0001 C CNN
	1    2050 5100
	-1   0    0    1   
$EndComp
Text GLabel 5100 4300 2    60   Input ~ 0
STEPIN1
Text GLabel 5100 4200 2    60   Input ~ 0
DIRIN1
Text GLabel 5100 4100 2    60   Input ~ 0
ENABLEIN1
Text GLabel 2000 800  2    60   Input ~ 0
STEPIN1
Text GLabel 2000 1000 2    60   Input ~ 0
DIRIN1
Text GLabel 2000 1200 2    60   Input ~ 0
ENABLEIN1
Text GLabel 3950 1700 3    60   Input ~ 0
NCS1
Text GLabel 3500 4000 0    60   Input ~ 0
NCS1
Text GLabel 4050 1100 3    60   Input ~ 0
MISO1
Text GLabel 4150 1100 3    60   Input ~ 0
MOSI1
Text GLabel 3500 3700 0    60   Input ~ 0
MOSI1
Text GLabel 3500 3800 0    60   Input ~ 0
MISO1
Text GLabel 4250 1100 3    60   Input ~ 0
SCLK1
Text GLabel 3500 3900 0    60   Input ~ 0
SCLK1
Text GLabel 4350 1100 3    60   Input ~ 0
RST1
Text GLabel 3500 3600 0    60   Input ~ 0
RST1
Text GLabel 2250 4450 2    60   Input ~ 0
ESTOP
$Comp
L Earth #PWR04
U 1 1 59D5EA6C
P 2250 4550
F 0 "#PWR04" H 2250 4300 50  0001 C CNN
F 1 "Earth" H 2250 4400 50  0001 C CNN
F 2 "" H 2250 4550 50  0001 C CNN
F 3 "" H 2250 4550 50  0001 C CNN
	1    2250 4550
	1    0    0    -1  
$EndComp
$Comp
L Earth #PWR05
U 1 1 59D5EABC
P 2250 5150
F 0 "#PWR05" H 2250 4900 50  0001 C CNN
F 1 "Earth" H 2250 5000 50  0001 C CNN
F 2 "" H 2250 5150 50  0001 C CNN
F 3 "" H 2250 5150 50  0001 C CNN
	1    2250 5150
	1    0    0    -1  
$EndComp
Text GLabel 2250 5050 2    60   Input ~ 0
PJON
Text GLabel 4100 3100 1    60   Input ~ 0
VIN_USB
Text GLabel 2150 2900 2    60   Input ~ 0
VIN_USB
Text GLabel 2150 2800 2    60   Input ~ 0
QE1CHB
Text GLabel 2150 3000 2    60   Input ~ 0
QE1CHA
Text GLabel 3500 3400 0    60   Input ~ 0
QE1CHA
Text GLabel 3500 3300 0    60   Input ~ 0
QE1CHB
Text GLabel 7450 1650 0    60   Input ~ 0
STEPOUT1
Text GLabel 7450 1750 0    60   Input ~ 0
DIROUT1
Text GLabel 7450 1550 0    60   Input ~ 0
ENABLEOUT1
Text GLabel 3500 3500 0    60   Input ~ 0
PJON
Text GLabel 5100 4900 2    60   Input ~ 0
ESTOP
Text GLabel 5100 4600 2    60   Input ~ 0
ENABLEOUT1
Text GLabel 5100 4700 2    60   Input ~ 0
STEPOUT1
Text GLabel 5100 4800 2    60   Input ~ 0
DIROUT1
Text GLabel 9300 750  2    60   Input ~ 0
VMOT1
Text GLabel 4150 5850 0    60   Input ~ 0
VMOT1
Text Notes 6850 700  0    60   ~ 0
Pololu Slot 1\n
Text Notes 3500 700  0    60   ~ 0
ADNS-3080 board slot 1
Text Notes 1250 700  0    60   ~ 0
Stepper input 1
Text Notes 1150 3050 0    60   ~ 0
Quad enc 1
Text Notes 1350 4500 0    60   ~ 0
Estop pin
Text Notes 1250 5100 0    60   ~ 0
PJON comms
Text Notes 7350 7500 0    60   ~ 0
CLOSED LOOP CONTROLLER
Text Notes 4150 5650 0    60   ~ 0
VMOT Screw Terminal\n
Text GLabel 3500 4200 0    60   Input ~ 0
LEDRED
Text GLabel 3500 4300 0    60   Input ~ 0
LEDGREEN
Text GLabel 2800 5850 2    60   Input ~ 0
LEDRED
Text GLabel 2800 6150 2    60   Input ~ 0
LEDGREEN
$Comp
L R R3
U 1 1 59D64D7C
P 2650 5850
F 0 "R3" V 2730 5850 50  0000 C CNN
F 1 "R220" V 2650 5850 50  0000 C CNN
F 2 "Resistors_SMD:R_0805_HandSoldering" V 2580 5850 50  0001 C CNN
F 3 "" H 2650 5850 50  0001 C CNN
	1    2650 5850
	0    1    1    0   
$EndComp
Text Notes 2000 5700 0    60   ~ 0
LED quality indicator
NoConn ~ 2150 3100
NoConn ~ 4550 1100
NoConn ~ 4450 1100
NoConn ~ 3750 1100
$Comp
L Earth #PWR06
U 1 1 59D6C023
P 1800 6100
F 0 "#PWR06" H 1800 5850 50  0001 C CNN
F 1 "Earth" H 1800 5950 50  0001 C CNN
F 2 "" H 1800 6100 50  0001 C CNN
F 3 "" H 1800 6100 50  0001 C CNN
	1    1800 6100
	1    0    0    -1  
$EndComp
$Comp
L R R4
U 1 1 59D6C10F
P 2650 6150
F 0 "R4" V 2730 6150 50  0000 C CNN
F 1 "R220" V 2650 6150 50  0000 C CNN
F 2 "Resistors_SMD:R_0805_HandSoldering" V 2580 6150 50  0001 C CNN
F 3 "" H 2650 6150 50  0001 C CNN
	1    2650 6150
	0    1    1    0   
$EndComp
$Comp
L R R6
U 1 1 59D6CB2C
P 7650 1400
F 0 "R6" V 7730 1400 50  0000 C CNN
F 1 "R10k" V 7650 1400 50  0000 C CNN
F 2 "Resistors_SMD:R_0805_HandSoldering" V 7580 1400 50  0001 C CNN
F 3 "" H 7650 1400 50  0001 C CNN
	1    7650 1400
	1    0    0    -1  
$EndComp
$Comp
L VCC #PWR07
U 1 1 59D6CB32
P 7650 1250
F 0 "#PWR07" H 7650 1100 50  0001 C CNN
F 1 "VCC" H 7650 1400 50  0000 C CNN
F 2 "" H 7650 1250 50  0001 C CNN
F 3 "" H 7650 1250 50  0001 C CNN
	1    7650 1250
	1    0    0    -1  
$EndComp
$Comp
L Earth #PWR08
U 1 1 59D6D7DC
P 3650 1100
F 0 "#PWR08" H 3650 850 50  0001 C CNN
F 1 "Earth" H 3650 950 50  0001 C CNN
F 2 "" H 3650 1100 50  0001 C CNN
F 3 "" H 3650 1100 50  0001 C CNN
	1    3650 1100
	1    0    0    -1  
$EndComp
$Comp
L VCC #PWR09
U 1 1 59D6D7E2
P 3650 1450
F 0 "#PWR09" H 3650 1300 50  0001 C CNN
F 1 "VCC" H 3650 1600 50  0000 C CNN
F 2 "" H 3650 1450 50  0001 C CNN
F 3 "" H 3650 1450 50  0001 C CNN
	1    3650 1450
	-1   0    0    1   
$EndComp
$Comp
L R R7
U 1 1 59D6D7E8
P 3800 1450
F 0 "R7" V 3880 1450 50  0000 C CNN
F 1 "R10k" V 3800 1450 50  0000 C CNN
F 2 "Resistors_SMD:R_0805_HandSoldering" V 3730 1450 50  0001 C CNN
F 3 "" H 3800 1450 50  0001 C CNN
	1    3800 1450
	0    -1   -1   0   
$EndComp
$Comp
L Earth #PWR010
U 1 1 59DBDA51
P 2250 1400
F 0 "#PWR010" H 2250 1150 50  0001 C CNN
F 1 "Earth" H 2250 1250 50  0001 C CNN
F 2 "" H 2250 1400 50  0001 C CNN
F 3 "" H 2250 1400 50  0001 C CNN
	1    2250 1400
	1    0    0    -1  
$EndComp
Text GLabel 4150 6050 0    60   Input ~ 0
MOTGND
Text GLabel 8400 2450 3    60   Input ~ 0
MOTGND
$Comp
L VCC #PWR011
U 1 1 59DC23BE
P 3500 5100
F 0 "#PWR011" H 3500 4950 50  0001 C CNN
F 1 "VCC" H 3500 5250 50  0000 C CNN
F 2 "" H 3500 5100 50  0001 C CNN
F 3 "" H 3500 5100 50  0001 C CNN
	1    3500 5100
	0    -1   -1   0   
$EndComp
$Comp
L VCC #PWR012
U 1 1 59DC240E
P 5100 5100
F 0 "#PWR012" H 5100 4950 50  0001 C CNN
F 1 "VCC" H 5100 5250 50  0000 C CNN
F 2 "" H 5100 5100 50  0001 C CNN
F 3 "" H 5100 5100 50  0001 C CNN
	1    5100 5100
	0    1    1    0   
$EndComp
$Comp
L Earth #PWR013
U 1 1 59DC245E
P 5100 5000
F 0 "#PWR013" H 5100 4750 50  0001 C CNN
F 1 "Earth" H 5100 4850 50  0001 C CNN
F 2 "" H 5100 5000 50  0001 C CNN
F 3 "" H 5100 5000 50  0001 C CNN
	1    5100 5000
	0    -1   -1   0   
$EndComp
$Comp
L Earth #PWR014
U 1 1 59DC24C2
P 3500 5000
F 0 "#PWR014" H 3500 4750 50  0001 C CNN
F 1 "Earth" H 3500 4850 50  0001 C CNN
F 2 "" H 3500 5000 50  0001 C CNN
F 3 "" H 3500 5000 50  0001 C CNN
	1    3500 5000
	0    1    1    0   
$EndComp
NoConn ~ 3500 4900
NoConn ~ 3500 4500
$Comp
L VCC #PWR015
U 1 1 59D5CA13
P 7100 2750
F 0 "#PWR015" H 7100 2600 50  0001 C CNN
F 1 "VCC" H 7100 2900 50  0000 C CNN
F 2 "" H 7100 2750 50  0001 C CNN
F 3 "" H 7100 2750 50  0001 C CNN
	1    7100 2750
	-1   0    0    1   
$EndComp
$Comp
L CONN_02X03 J10
U 1 1 59D5B622
P 7350 2500
F 0 "J10" H 7350 2700 50  0000 C CNN
F 1 "CONN_02X03" H 7350 2300 50  0000 C CNN
F 2 "Pin_Headers:Pin_Header_Straight_2x03_Pitch2.54mm" H 7350 1300 50  0001 C CNN
F 3 "" H 7350 1300 50  0001 C CNN
	1    7350 2500
	0    1    1    0   
$EndComp
Text GLabel 8950 1050 2    60   Input ~ 0
MOTGND
$Comp
L CONN_01X04 P1
U 1 1 59ECD1B7
P 1500 1100
F 0 "P1" H 1500 1350 50  0000 C CNN
F 1 "CONN_01X04" V 1600 1100 50  0000 C CNN
F 2 "Pin_Headers:Pin_Header_Straight_1x04_Pitch2.54mm" H 1500 1100 50  0001 C CNN
F 3 "" H 1500 1100 50  0000 C CNN
	1    1500 1100
	-1   0    0    1   
$EndComp
$Comp
L CONN_01X04 P3
U 1 1 59ECE5A6
P 9350 1700
F 0 "P3" H 9350 1950 50  0000 C CNN
F 1 "CONN_01X04" V 9450 1700 50  0000 C CNN
F 2 "Pin_Headers:Pin_Header_Straight_1x04_Pitch2.54mm" H 9350 1700 50  0001 C CNN
F 3 "" H 9350 1700 50  0000 C CNN
	1    9350 1700
	1    0    0    -1  
$EndComp
$Comp
L Maple_Mini A1
U 1 1 59ED2B4B
P 4300 4200
F 0 "A1" H 3650 5200 50  0000 L CNN
F 1 "Maple_Mini" H 4950 5200 50  0000 R CNN
F 2 "maplemini:maple_mini_socket" H 4350 3150 50  0001 L CNN
F 3 "" H 4350 2200 50  0001 L CNN
	1    4300 4200
	1    0    0    -1  
$EndComp
$Comp
L Screw_Terminal_1x02 J2
U 1 1 59ED1A8D
P 4650 5950
F 0 "J2" H 4650 6200 50  0000 C TNN
F 1 "Screw_Terminal_1x02" V 4500 5950 50  0000 C TNN
F 2 "Terminal_Blocks:TerminalBlock_Pheonix_MPT-2.54mm_2pol" H 4650 5725 50  0001 C CNN
F 3 "" H 4625 5950 50  0001 C CNN
	1    4650 5950
	-1   0    0    1   
$EndComp
$Comp
L Pololu_Breakout_A4988 A3
U 1 1 59ED1D36
P 8200 4100
F 0 "A3" H 8100 4850 50  0000 R CNN
F 1 "Pololu_Breakout_A4988" H 8100 4750 50  0000 R CNN
F 2 "Modules:Pololu_Breakout-16_15.2x20.3mm" H 8475 3350 50  0001 L CNN
F 3 "" H 8300 3800 50  0001 C CNN
	1    8200 4100
	1    0    0    -1  
$EndComp
$Comp
L R R5
U 1 1 59ED1D3D
P 7600 4700
F 0 "R5" V 7680 4700 50  0000 C CNN
F 1 "R100K" V 7600 4700 50  0000 C CNN
F 2 "Resistors_SMD:R_0805_HandSoldering" V 7530 4700 50  0001 C CNN
F 3 "" H 7600 4700 50  0001 C CNN
	1    7600 4700
	0    -1   -1   0   
$EndComp
$Comp
L Earth #PWR016
U 1 1 59ED1D43
P 7750 4700
F 0 "#PWR016" H 7750 4450 50  0001 C CNN
F 1 "Earth" H 7750 4550 50  0001 C CNN
F 2 "" H 7750 4700 50  0001 C CNN
F 3 "" H 7750 4700 50  0001 C CNN
	1    7750 4700
	1    0    0    -1  
$EndComp
$Comp
L Earth #PWR017
U 1 1 59ED1D49
P 8200 4900
F 0 "#PWR017" H 8200 4650 50  0001 C CNN
F 1 "Earth" H 8200 4750 50  0001 C CNN
F 2 "" H 8200 4900 50  0001 C CNN
F 3 "" H 8200 4900 50  0001 C CNN
	1    8200 4900
	1    0    0    -1  
$EndComp
$Comp
L VCC #PWR018
U 1 1 59ED1D4F
P 8200 3400
F 0 "#PWR018" H 8200 3250 50  0001 C CNN
F 1 "VCC" H 8200 3550 50  0000 C CNN
F 2 "" H 8200 3400 50  0001 C CNN
F 3 "" H 8200 3400 50  0001 C CNN
	1    8200 3400
	1    0    0    -1  
$EndComp
$Comp
L CP1 C1
U 1 1 59ED1D55
P 8950 3350
F 0 "C1" H 8975 3450 50  0000 L CNN
F 1 "CP1" H 8975 3250 50  0000 L CNN
F 2 "smt_cap_alu_eletrolytic_6.6x5:CP_Elec_6.3x5.7" H 8950 3350 50  0001 C CNN
F 3 "" H 8950 3350 50  0001 C CNN
	1    8950 3350
	1    0    0    -1  
$EndComp
Text GLabel 7450 4100 0    60   Input ~ 0
STEPOUT2
Text GLabel 7450 4200 0    60   Input ~ 0
DIROUT2
Text GLabel 7450 4000 0    60   Input ~ 0
ENABLEOUT2
Text GLabel 9300 3200 2    60   Input ~ 0
VMOT2
Text Notes 6850 3150 0    60   ~ 0
Pololu Slot 2
$Comp
L R R8
U 1 1 59ED1D68
P 7650 3850
F 0 "R8" V 7730 3850 50  0000 C CNN
F 1 "R10k" V 7650 3850 50  0000 C CNN
F 2 "Resistors_SMD:R_0805_HandSoldering" V 7580 3850 50  0001 C CNN
F 3 "" H 7650 3850 50  0001 C CNN
	1    7650 3850
	1    0    0    -1  
$EndComp
$Comp
L VCC #PWR019
U 1 1 59ED1D6E
P 7650 3700
F 0 "#PWR019" H 7650 3550 50  0001 C CNN
F 1 "VCC" H 7650 3850 50  0000 C CNN
F 2 "" H 7650 3700 50  0001 C CNN
F 3 "" H 7650 3700 50  0001 C CNN
	1    7650 3700
	1    0    0    -1  
$EndComp
Text GLabel 8400 4900 3    60   Input ~ 0
MOTGND
$Comp
L VCC #PWR020
U 1 1 59ED1D7B
P 7100 5200
F 0 "#PWR020" H 7100 5050 50  0001 C CNN
F 1 "VCC" H 7100 5350 50  0000 C CNN
F 2 "" H 7100 5200 50  0001 C CNN
F 3 "" H 7100 5200 50  0001 C CNN
	1    7100 5200
	-1   0    0    1   
$EndComp
$Comp
L CONN_02X03 J8
U 1 1 59ED1D81
P 7350 4950
F 0 "J8" H 7350 5150 50  0000 C CNN
F 1 "CONN_02X03" H 7350 4750 50  0000 C CNN
F 2 "Pin_Headers:Pin_Header_Straight_2x03_Pitch2.54mm" H 7350 3750 50  0001 C CNN
F 3 "" H 7350 3750 50  0001 C CNN
	1    7350 4950
	0    1    1    0   
$EndComp
Text GLabel 8950 3500 2    60   Input ~ 0
MOTGND
$Comp
L CONN_01X04 P4
U 1 1 59ED1D9A
P 9350 4150
F 0 "P4" H 9350 4400 50  0000 C CNN
F 1 "CONN_01X04" V 9450 4150 50  0000 C CNN
F 2 "Pin_Headers:Pin_Header_Straight_1x04_Pitch2.54mm" H 9350 4150 50  0001 C CNN
F 3 "" H 9350 4150 50  0000 C CNN
	1    9350 4150
	1    0    0    -1  
$EndComp
$Comp
L CONN_01X10 J4
U 1 1 59ED3A26
P 5400 900
F 0 "J4" H 5400 1450 50  0000 C CNN
F 1 "CONN_01X10" V 5500 900 50  0000 C CNN
F 2 "Pin_Headers:Pin_Header_Straight_1x10_Pitch2.54mm" H 5400 900 50  0001 C CNN
F 3 "" H 5400 900 50  0001 C CNN
	1    5400 900 
	0    -1   -1   0   
$EndComp
Text GLabel 5250 1700 3    60   Input ~ 0
NCS2
Text GLabel 5350 1100 3    60   Input ~ 0
MISO2
Text GLabel 5450 1100 3    60   Input ~ 0
MOSI2
Text GLabel 5550 1100 3    60   Input ~ 0
SCLK2
Text GLabel 5650 1100 3    60   Input ~ 0
RST2
Text Notes 4800 700  0    60   ~ 0
ADNS-3080 board slot 2
NoConn ~ 5850 1100
NoConn ~ 5750 1100
NoConn ~ 5050 1100
$Comp
L Earth #PWR021
U 1 1 59ED3A37
P 4950 1100
F 0 "#PWR021" H 4950 850 50  0001 C CNN
F 1 "Earth" H 4950 950 50  0001 C CNN
F 2 "" H 4950 1100 50  0001 C CNN
F 3 "" H 4950 1100 50  0001 C CNN
	1    4950 1100
	1    0    0    -1  
$EndComp
$Comp
L VCC #PWR022
U 1 1 59ED3A3D
P 4950 1450
F 0 "#PWR022" H 4950 1300 50  0001 C CNN
F 1 "VCC" H 4950 1600 50  0000 C CNN
F 2 "" H 4950 1450 50  0001 C CNN
F 3 "" H 4950 1450 50  0001 C CNN
	1    4950 1450
	-1   0    0    1   
$EndComp
$Comp
L R R2
U 1 1 59ED3A43
P 5100 1450
F 0 "R2" V 5180 1450 50  0000 C CNN
F 1 "R10k" V 5100 1450 50  0000 C CNN
F 2 "Resistors_SMD:R_0805_HandSoldering" V 5030 1450 50  0001 C CNN
F 3 "" H 5100 1450 50  0001 C CNN
	1    5100 1450
	0    -1   -1   0   
$EndComp
Text GLabel 2000 1850 2    60   Input ~ 0
STEPIN2
Text GLabel 2000 2050 2    60   Input ~ 0
DIRIN2
Text GLabel 2000 2250 2    60   Input ~ 0
ENABLEIN2
Text Notes 1250 1750 0    60   ~ 0
Stepper input 2
$Comp
L Earth #PWR023
U 1 1 59ED4FF7
P 2250 2450
F 0 "#PWR023" H 2250 2200 50  0001 C CNN
F 1 "Earth" H 2250 2300 50  0001 C CNN
F 2 "" H 2250 2450 50  0001 C CNN
F 3 "" H 2250 2450 50  0001 C CNN
	1    2250 2450
	1    0    0    -1  
$EndComp
$Comp
L CONN_01X04 P2
U 1 1 59ED4FFD
P 1500 2150
F 0 "P2" H 1500 2400 50  0000 C CNN
F 1 "CONN_01X04" V 1600 2150 50  0000 C CNN
F 2 "Pin_Headers:Pin_Header_Straight_1x04_Pitch2.54mm" H 1500 2150 50  0001 C CNN
F 3 "" H 1500 2150 50  0000 C CNN
	1    1500 2150
	-1   0    0    1   
$EndComp
$Comp
L CONN_01X05 J1
U 1 1 59ED5496
P 1950 3750
F 0 "J1" H 1950 4050 50  0000 C CNN
F 1 "CONN_01X05" V 2050 3750 50  0000 C CNN
F 2 "Pin_Headers:Pin_Header_Straight_1x05_Pitch2.54mm" H 1950 3750 50  0001 C CNN
F 3 "" H 1950 3750 50  0001 C CNN
	1    1950 3750
	-1   0    0    1   
$EndComp
Text GLabel 2150 3650 2    60   Input ~ 0
VIN_USB
Text GLabel 2150 3550 2    60   Input ~ 0
QE2CHB
Text GLabel 2150 3750 2    60   Input ~ 0
QE2CHA
Text Notes 1150 3800 0    60   ~ 0
Quad enc 2
NoConn ~ 2150 3850
$Comp
L Earth #PWR024
U 1 1 59ED54A6
P 2300 3950
F 0 "#PWR024" H 2300 3700 50  0001 C CNN
F 1 "Earth" H 2300 3800 50  0001 C CNN
F 2 "" H 2300 3950 50  0001 C CNN
F 3 "" H 2300 3950 50  0001 C CNN
	1    2300 3950
	1    0    0    -1  
$EndComp
$Comp
L Earth #PWR025
U 1 1 59ED54AC
P 2300 3200
F 0 "#PWR025" H 2300 2950 50  0001 C CNN
F 1 "Earth" H 2300 3050 50  0001 C CNN
F 2 "" H 2300 3200 50  0001 C CNN
F 3 "" H 2300 3200 50  0001 C CNN
	1    2300 3200
	1    0    0    -1  
$EndComp
NoConn ~ 5100 3900
NoConn ~ 5100 4000
Text GLabel 3500 4600 0    60   Input ~ 0
ENABLEOUT2
Text GLabel 3500 4700 0    60   Input ~ 0
STEPOUT2
Text GLabel 3500 4800 0    60   Input ~ 0
DIROUT2
Text GLabel 5100 3500 2    60   Input ~ 0
MOSI2
Text GLabel 5100 3400 2    60   Input ~ 0
MISO2
Text GLabel 5100 3300 2    60   Input ~ 0
SCLK2
Text GLabel 5100 4400 2    60   Input ~ 0
QE2CHA
Text GLabel 5100 4500 2    60   Input ~ 0
QE2CHB
Text GLabel 5100 3600 2    60   Input ~ 0
STEPIN2
Text GLabel 5100 3700 2    60   Input ~ 0
DIRIN2
Text GLabel 5100 3800 2    60   Input ~ 0
ENABLEIN2
Text GLabel 3500 4100 0    60   Input ~ 0
RST2
Text GLabel 4450 3100 1    60   Input ~ 0
NCS2
NoConn ~ 3500 4400
$Comp
L Pololu_Breakout_A4988 A2
U 1 1 59D5B60B
P 8200 1650
F 0 "A2" H 8100 2400 50  0000 R CNN
F 1 "Pololu_Breakout_A4988" H 8100 2300 50  0000 R CNN
F 2 "Modules:Pololu_Breakout-16_15.2x20.3mm" H 8475 900 50  0001 L CNN
F 3 "" H 8300 1350 50  0001 C CNN
	1    8200 1650
	1    0    0    -1  
$EndComp
$Comp
L LED D1
U 1 1 59ED7FB9
P 2300 5850
F 0 "D1" H 2300 5950 50  0000 C CNN
F 1 "LED" H 2300 5750 50  0000 C CNN
F 2 "LEDs:LED_0805_HandSoldering" H 2300 5850 50  0001 C CNN
F 3 "" H 2300 5850 50  0000 C CNN
	1    2300 5850
	1    0    0    -1  
$EndComp
$Comp
L LED D2
U 1 1 59ED810E
P 2300 6150
F 0 "D2" H 2300 6250 50  0000 C CNN
F 1 "LED" H 2300 6050 50  0000 C CNN
F 2 "LEDs:LED_0805_HandSoldering" H 2300 6150 50  0001 C CNN
F 3 "" H 2300 6150 50  0000 C CNN
	1    2300 6150
	1    0    0    -1  
$EndComp
$Comp
L D D3
U 1 1 59ED823B
P 4300 6050
F 0 "D3" H 4300 6150 50  0000 C CNN
F 1 "D" H 4300 5950 50  0000 C CNN
F 2 "Diodes_ThroughHole:D_5W_P12.70mm_Horizontal" H 4300 6050 50  0001 C CNN
F 3 "" H 4300 6050 50  0000 C CNN
	1    4300 6050
	-1   0    0    1   
$EndComp
Wire Wire Line
	7800 1250 7800 1350
Connection ~ 8950 750 
Wire Wire Line
	1850 1400 2250 1400
Wire Notes Line
	3450 600  3450 2050
Wire Notes Line
	4650 600  3450 600 
Wire Notes Line
	2600 600  1250 600 
Wire Notes Line
	1250 1550 2600 1550
Wire Notes Line
	1850 4850 2600 4850
Wire Notes Line
	2600 4850 2600 5350
Wire Notes Line
	2600 5350 1850 5350
Wire Notes Line
	1850 5350 1850 4850
Wire Notes Line
	1800 4200 2600 4200
Wire Notes Line
	2600 4200 2600 4750
Wire Notes Line
	2600 4750 1800 4750
Wire Notes Line
	1800 4750 1800 4200
Wire Wire Line
	2150 3200 2300 3200
Wire Notes Line
	2600 3350 1700 3350
Wire Notes Line
	2600 2700 1700 2700
Wire Wire Line
	8400 950  8400 750 
Wire Wire Line
	8400 750  9300 750 
Wire Notes Line
	6800 600  6800 2950
Wire Notes Line
	6800 2950 9650 2950
Wire Notes Line
	9650 2950 9650 600 
Wire Notes Line
	9650 600  6800 600 
Wire Notes Line
	5350 6350 5350 5550
Wire Notes Line
	5350 5550 3600 5550
Wire Wire Line
	1800 6000 2000 6000
Wire Wire Line
	1800 6000 1800 6100
Wire Notes Line
	1600 5550 1600 6350
Wire Notes Line
	1600 6350 3350 6350
Wire Notes Line
	3350 6350 3350 5550
Wire Notes Line
	3350 5550 1600 5550
Wire Wire Line
	7450 1550 7800 1550
Connection ~ 7650 1550
Wire Wire Line
	3950 1100 3950 1700
Connection ~ 3950 1450
Wire Wire Line
	3850 1100 3850 1300
Wire Wire Line
	3850 1300 3650 1300
Wire Wire Line
	3650 1300 3650 1450
Wire Wire Line
	7800 1650 7450 1650
Wire Wire Line
	7450 1750 7800 1750
Wire Notes Line
	3450 2050 4650 2050
Wire Notes Line
	4650 2050 4650 600 
Connection ~ 2000 6000
Wire Notes Line
	3600 6350 5350 6350
Wire Notes Line
	2600 1550 2600 600 
Wire Notes Line
	1250 600  1250 1550
Wire Notes Line
	1700 2700 1700 3350
Wire Notes Line
	2600 3350 2600 2700
Wire Notes Line
	3600 5550 3600 6350
Connection ~ 8400 2450
Wire Wire Line
	7100 2750 7450 2750
Connection ~ 7350 2750
Connection ~ 7250 2750
Wire Wire Line
	7450 2250 7450 1950
Wire Wire Line
	7450 1950 7800 1950
Wire Wire Line
	7800 2150 7250 2150
Wire Wire Line
	7250 2150 7250 2250
Wire Wire Line
	7350 2250 7350 2050
Wire Wire Line
	7350 2050 7800 2050
Wire Wire Line
	4150 5850 4450 5850
Wire Wire Line
	2000 5850 2000 6150
Wire Wire Line
	2000 5850 2100 5850
Wire Wire Line
	2000 6150 2100 6150
Wire Wire Line
	1700 1250 1850 1250
Wire Wire Line
	1850 1250 1850 1400
Wire Wire Line
	1700 1150 1850 1150
Wire Wire Line
	1850 1150 1850 1200
Wire Wire Line
	1850 1200 2000 1200
Wire Wire Line
	1700 1050 1850 1050
Wire Wire Line
	1850 1050 1850 1000
Wire Wire Line
	1850 1000 2000 1000
Wire Wire Line
	1700 950  1850 950 
Wire Wire Line
	1850 950  1850 800 
Wire Wire Line
	1850 800  2000 800 
Wire Wire Line
	8700 1650 9150 1650
Wire Wire Line
	9150 1750 8700 1750
Wire Wire Line
	8700 1550 9150 1550
Wire Wire Line
	8700 1850 9150 1850
Wire Wire Line
	7800 3700 7800 3800
Connection ~ 8950 3200
Wire Wire Line
	8400 3400 8400 3200
Wire Wire Line
	8400 3200 9300 3200
Wire Notes Line
	6800 3050 6800 5400
Wire Notes Line
	6800 5400 9650 5400
Wire Notes Line
	9650 5400 9650 3050
Wire Notes Line
	9650 3050 6800 3050
Wire Wire Line
	7450 4000 7800 4000
Connection ~ 7650 4000
Wire Wire Line
	7800 4100 7450 4100
Wire Wire Line
	7450 4200 7800 4200
Connection ~ 8400 4900
Wire Wire Line
	7100 5200 7450 5200
Connection ~ 7350 5200
Connection ~ 7250 5200
Wire Wire Line
	7450 4700 7450 4400
Wire Wire Line
	7450 4400 7800 4400
Wire Wire Line
	7800 4600 7250 4600
Wire Wire Line
	7250 4600 7250 4700
Wire Wire Line
	7350 4700 7350 4500
Wire Wire Line
	7350 4500 7800 4500
Wire Wire Line
	8700 4100 9150 4100
Wire Wire Line
	9150 4200 8700 4200
Wire Wire Line
	8700 4000 9150 4000
Wire Wire Line
	8700 4300 9150 4300
Wire Notes Line
	4750 600  4750 2050
Wire Notes Line
	5950 600  4750 600 
Wire Wire Line
	5250 1100 5250 1700
Connection ~ 5250 1450
Wire Wire Line
	5150 1100 5150 1300
Wire Wire Line
	5150 1300 4950 1300
Wire Wire Line
	4950 1300 4950 1450
Wire Notes Line
	4750 2050 5950 2050
Wire Notes Line
	5950 2050 5950 600 
Wire Wire Line
	1850 2450 2250 2450
Wire Notes Line
	2600 1650 1250 1650
Wire Notes Line
	1250 2600 2600 2600
Wire Notes Line
	2600 2600 2600 1650
Wire Notes Line
	1250 1650 1250 2600
Wire Wire Line
	1700 2300 1850 2300
Wire Wire Line
	1850 2300 1850 2450
Wire Wire Line
	1700 2200 1850 2200
Wire Wire Line
	1850 2200 1850 2250
Wire Wire Line
	1850 2250 2000 2250
Wire Wire Line
	1700 2100 1850 2100
Wire Wire Line
	1850 2100 1850 2050
Wire Wire Line
	1850 2050 2000 2050
Wire Wire Line
	1700 2000 1850 2000
Wire Wire Line
	1850 2000 1850 1850
Wire Wire Line
	1850 1850 2000 1850
Wire Wire Line
	2150 3950 2300 3950
Wire Notes Line
	2600 4100 1700 4100
Wire Notes Line
	2600 3450 1700 3450
Wire Notes Line
	1700 3450 1700 4100
Wire Notes Line
	2600 4100 2600 3450
Text GLabel 4150 5750 0    60   Input ~ 0
VMOT2
Wire Wire Line
	4300 5750 4150 5750
Connection ~ 4300 5850
Wire Wire Line
	4300 5750 4300 5850
$EndSCHEMATC
