M48
;DRILL file {KiCad 4.0.4+e1-6308~48~ubuntu15.10.1-stable} date Mon Oct 23 20:26:31 2017
;FORMAT={-:-/ absolute / inch / decimal}
FMAT,2
INCH,TZ
T1C0.030
T2C0.031
T3C0.039
T4C0.047
T5C0.063
T6C0.120
%
G90
G05
M72
T1
X0.15Y-0.65
X0.15Y-1.25
X0.25Y-0.65
X0.25Y-1.25
X0.35Y-0.65
X0.35Y-1.25
X0.45Y-0.65
X0.45Y-1.25
X0.55Y-0.65
X0.55Y-1.25
X0.65Y-0.65
X0.65Y-1.25
X0.75Y-0.65
X0.75Y-1.25
X0.85Y-0.65
X0.85Y-1.25
X0.95Y-0.65
X0.95Y-1.25
X1.05Y-0.65
X1.05Y-1.25
X1.15Y-0.65
X1.15Y-1.25
X1.25Y-0.65
X1.25Y-1.25
X1.35Y-0.65
X1.35Y-1.25
X1.45Y-0.65
X1.45Y-1.25
X1.55Y-0.65
X1.55Y-1.25
X1.65Y-0.65
X1.65Y-1.25
X1.75Y-0.65
X1.75Y-1.25
X1.85Y-0.65
X1.85Y-1.25
X1.95Y-0.65
X1.95Y-1.25
X2.05Y-0.65
X2.05Y-1.25
T2
X0.2Y-1.85
X0.2Y-2.35
X0.3Y-1.85
X0.3Y-2.35
X0.4Y-1.85
X0.4Y-2.35
X0.5Y-1.85
X0.5Y-2.35
X0.6Y-1.85
X0.6Y-2.35
X0.7Y-1.85
X0.7Y-2.35
X0.8Y-1.85
X0.8Y-2.35
X0.9Y-1.85
X0.9Y-2.35
T3
X0.25Y-2.
X0.25Y-2.1
X0.35Y-2.
X0.35Y-2.1
X0.4Y-0.35
X0.4Y-2.5
X0.45Y-2.
X0.45Y-2.1
X0.5Y-0.35
X0.5Y-2.5
X0.6Y-0.35
X0.6Y-2.5
X0.7Y-0.35
X0.7Y-2.5
X0.8Y-0.35
X0.9Y-0.35
X0.95Y-1.5
X1.Y-0.35
X1.05Y-1.5
X1.1Y-0.35
X1.15Y-1.5
X1.2Y-0.35
X1.25Y-1.5
X1.3Y-0.35
X1.5Y-0.35
X1.6Y-0.35
X1.6Y-1.6
X1.6Y-1.7
X1.7Y-0.35
X1.8Y-0.35
X1.9Y-0.35
X1.9Y-1.6
X1.9Y-1.7
T4
X1.88Y-2.0522
X1.88Y-2.19
T5
X1.1Y-2.25
X1.6Y-2.25
T6
X0.15Y-0.15
X0.15Y-2.6
X2.05Y-0.15
X2.05Y-2.6
T0
M30
